src/verilog/vcd/divide.vcd
$date
	Mon Dec  9 13:15:35 2019
$end

$version
	Synopsys VCS version J-2014.12-SP1-1_Full64
$end

$timescale
	10ps
$end

$comment Csum: 1 7b7eb09baed99009 $end


$scope module divide_tb $end
$var reg 16 ! num [15:0] $end
$var reg 16 " den [15:0] $end
$var reg 16 # clk_counter [15:0] $end
$var reg 1 $ clk $end
$var reg 1 % rst $end
$var wire 1 & ready $end
$var wire 16 ' out [15:0] $end

$scope module d $end
$var wire 16 ! numerator [15:0] $end
$var wire 16 " denominator [15:0] $end
$var wire 1 $ clk $end
$var wire 1 % rst $end
$var wire 16 ' quotient [15:0] $end
$var wire 1 & ready $end
$var reg 30 ( a [29:0] $end
$var reg 30 ) m [29:0] $end
$var reg 30 * q [29:0] $end
$var reg 5 + n [4:0] $end
$var wire 1 , sign $end
$upscope $end

$upscope $end

$enddefinitions $end

#0
$dumpvars
0$
0&
1%
1,
b000000000000000000000000000000 (
b0000000000000000 #
b1000000010000000 "
b000000000000000000000010000000 )
b11110 +
b0000000110000000 !
b000000000000011000000000000000 *
b1000000000000000 '
$end
#1000
1$
b0000000000000001 #
#1500
0%
b111111111111111111111110000000 (
b000000000000110000000000000000 *
b11101 +
#2000
0$
#3000
1$
b000000000001100000000000000000 *
b11100 +
b0000000000000010 #
#4000
0$
#5000
1$
b000000000011000000000000000000 *
b11011 +
b0000000000000011 #
#6000
0$
#7000
1$
b000000000110000000000000000000 *
b11010 +
b0000000000000100 #
#8000
0$
#9000
1$
b000000001100000000000000000000 *
b11001 +
b0000000000000101 #
#10000
0$
#11000
1$
b000000011000000000000000000000 *
b11000 +
b0000000000000110 #
#12000
0$
#13000
1$
b000000110000000000000000000000 *
b10111 +
b0000000000000111 #
#14000
0$
#15000
1$
b000001100000000000000000000000 *
b10110 +
b0000000000001000 #
#16000
0$
#17000
1$
b000011000000000000000000000000 *
b10101 +
b0000000000001001 #
#18000
0$
#19000
1$
b000110000000000000000000000000 *
b10100 +
b0000000000001010 #
#20000
0$
#21000
1$
b001100000000000000000000000000 *
b10011 +
b0000000000001011 #
#22000
0$
#23000
1$
b011000000000000000000000000000 *
b10010 +
b0000000000001100 #
#24000
0$
#25000
1$
b110000000000000000000000000000 *
b10001 +
b0000000000001101 #
#26000
0$
#27000
1$
b111111111111111111111110000001 (
b100000000000000000000000000000 *
b10000 +
b0000000000001110 #
#28000
0$
#29000
1$
b111111111111111111111110000011 (
b000000000000000000000000000000 *
b01111 +
b0000000000001111 #
#30000
0$
#31000
1$
b111111111111111111111110000110 (
b01110 +
b0000000000010000 #
#32000
0$
#33000
1$
b111111111111111111111110001100 (
b01101 +
b0000000000010001 #
#34000
0$
#35000
1$
b111111111111111111111110011000 (
b01100 +
b0000000000010010 #
#36000
0$
#37000
1$
b111111111111111111111110110000 (
b01011 +
b0000000000010011 #
#38000
0$
#39000
1$
b111111111111111111111111100000 (
b01010 +
b0000000000010100 #
#40000
0$
#41000
1$
b000000000000000000000001000000 (
b000000000000000000000000000001 *
b01001 +
b1000000000000001 '
b0000000000010101 #
#42000
0$
#43000
1$
b000000000000000000000000000000 (
b000000000000000000000000000011 *
b01000 +
b1000000000000011 '
b0000000000010110 #
#44000
0$
#45000
1$
b111111111111111111111110000000 (
b000000000000000000000000000110 *
b00111 +
b1000000000000110 '
b0000000000010111 #
#46000
0$
#47000
1$
b000000000000000000000000001100 *
b00110 +
b1000000000001100 '
b0000000000011000 #
#48000
0$
#49000
1$
b000000000000000000000000011000 *
b00101 +
b1000000000011000 '
b0000000000011001 #
#50000
0$
#51000
1$
b000000000000000000000000110000 *
b00100 +
b1000000000110000 '
b0000000000011010 #
#52000
0$
#53000
1$
b000000000000000000000001100000 *
b00011 +
b1000000001100000 '
b0000000000011011 #
#54000
0$
#55000
1$
b000000000000000000000011000000 *
b00010 +
b1000000011000000 '
b0000000000011100 #
#56000
0$
#57000
1$
b000000000000000000000110000000 *
b00001 +
b1000000110000000 '
b0000000000011101 #
#58000
0$
#59000
1$
b000000000000000000001100000000 *
b00000 +
1&
b1000001100000000 '
b0000000000011110 #
#60000
0$
#61000
1$
b01110 +
0&
b000000000000000000000000000000 (
b0000000000011111 #
#62000
0$
#63000
1$
b111111111111111111111110000000 (
b000000000000000000011000000000 *
b01101 +
b1000011000000000 '
b0000000000100000 #
#64000
0$
#65000
1$
b000000000000000000110000000000 *
b01100 +
b1000110000000000 '
b0000000000100001 #
#66000
0$
#67000
1$
b000000000000000001100000000000 *
b01011 +
b1001100000000000 '
b0000000000100010 #
